{
    "target": "kasli",
    "min_artiq_version": "6.0",
    "variant": "brassboard",
    "hw_rev": "v1.1",
    "base": "standalone",
    "rtio_frequency": 125e6,
    "peripherals": [
        {
            "type": "urukul",
            "dds": "ad9910",
            "ports": [0, 1],
            "clk_sel": 2,
            "refclk": 1e9
        },
        {
            "type": "urukul",
            "dds": "ad9910",
            "ports": [2, 3],
            "clk_sel": 2,
            "refclk": 1e9
        },
        {
            "type": "urukul",
            "dds": "ad9910",
            "ports": [4, 5],
            "clk_sel": 2,
            "refclk": 1e9
        },
        {
            "type": "dio",
            "ports": [6],
            "bank_direction_low": "input",
            "bank_direction_high": "input",
            "edge_counter": true
        },
        {
            "type": "dio",
            "ports": [7],
            "bank_direction_low": "input",
            "bank_direction_high": "input",
            "edge_counter": true
        },
        {
            "type": "dio",
            "ports": [8],
            "bank_direction_low": "output",
            "bank_direction_high": "output"
        },
        {
            "type": "dio_spi",
            "ports": [9],
            "spi": [
                {
                    "name": "sandia_dac_spi",
                    "clk": 6,
                    "mosi": 7
                }
            ],
            "ttl": [
                {
                    "pin": 0,
                    "direction": "output"
                },
                {
                    "pin": 1,
                    "direction": "output"
                },
                {
                    "pin": 2,
                    "direction": "output"
                },
                {
                    "pin": 3,
                    "direction": "output"
                },
                {
                    "pin": 4,
                    "direction": "output"
                },
                {
                    "name": "sandia_dac_trigger",
                    "pin": 5,
                    "direction": "output"
                }
            ]
        },
        {
            "type": "zotino",
            "ports": [10]
        }
    ]
}
