{
    "target": "kasli",
    "min_artiq_version": "6.0",
    "variant": "green_master",
    "hw_rev": "v2.0",
    "base": "master",
    "rtio_frequency": 125e6,
    "peripherals": [
        {
            "type": "dio",
            "board": "DIO_BNC",
            "ports": [0],
            "bank_direction_low": "input",
            "bank_direction_high": "input",
            "edge_counter": true
        },
        {
            "type": "dio",
            "board": "DIO_BNC",
            "ports": [1],
            "bank_direction_low": "input",
            "bank_direction_high": "input",
            "edge_counter": true
        },
        {
            "type": "dio",
            "board": "DIO_SMA",
            "ports": [2],
            "bank_direction_low": "output",
            "bank_direction_high": "output"
        },
        {
            "type": "dio",
            "board": "DIO_SMA",
            "ports": [3],
            "bank_direction_low": "output",
            "bank_direction_high": "output"
        },
        {
            "type": "urukul",
            "ports": [4, 5],
            "synchronization": false,
            "dds": "ad9910",
            "clk_sel": 1,
            "refclk": 1e9
        },
        {
            "type": "urukul",
            "ports": [6, 7],
            "synchronization": false,
            "dds": "ad9910",
            "clk_sel": 1,
            "refclk": 1e9
        },
        {
            "type": "urukul",
            "ports": [8, 9],
            "synchronization": false,
            "dds": "ad9910",
            "clk_sel": 1,
            "refclk": 1e9
        },
        {
            "type": "urukul",
            "ports": [10, 11],
            "synchronization": false,
            "dds": "ad9910",
            "clk_sel": 1,
            "refclk": 1e9
        }
    ]
}
