{
    "target": "kasli",
    "min_artiq_version": "7.0",
    "variant": "strontium_suservo_satellite",
    "hw_rev": "v2.0",
    "base": "satellite",
    "rtio_frequency": 125e6,
    "peripherals": [
        {
          "type": "suservo",
          "urukul0_ports": [3, 4],
          "urukul1_ports": [5, 6],
          "sampler_ports": [1, 2],
          "clk_sel": 1,
          "refclk": 100e6,
          "pll_vco": 5,
          "pll_n": 40
        },
        {
          "type": "urukul",
          "dds": "ad9910",
          "ports": [7, 8],
          "clk_sel": 1,
          "refclk": 100e6,
          "pll_vco": 5,
          "pll_n": 40
        }    
      ]
}
