{
    "target": "kasli",
    "min_artiq_version": "6.0",
    "variant": "tester_11",
    "hw_rev": "v1.1",
    "base": "standalone",
    "rtio_frequency": 125e6,
    "peripherals": [
        {
            "type": "dio",
            "ports": [0],
            "bank_direction_low": "input",
            "bank_direction_high": "output",
            "edge_counter": true
        },
        {
            "type": "dio",
            "ports": [1],
            "bank_direction_low": "input",
            "bank_direction_high": "output",
            "edge_counter": true
        },
        {
            "type": "urukul",
            "dds": "ad9910",
            "ports": [2, 3],
            "synchronization": false,
            "clk_sel": 2
        },
        {
            "type": "dio_spi",
            "ports": [4],
            "spi": [
                {
                    "name": "tester_spi",
                    "miso": 0,
                    "clk": 1,
                    "mosi": 2,
                    "cs": [3]
                }
            ],
            "ttl": [
                {
                    "pin": 4,
                    "direction": "output"
                },
                {
                    "pin": 5,
                    "direction": "output"
                },
                {
                    "pin": 6,
                    "direction": "output"
                },
                {
                    "pin": 7,
                    "direction": "output"
                }
            ]
        },
        {
            "type": "mirny",
            "ports": [7]
        },
        {
            "type": "zotino",
            "ports": [8]
        },
        {
            "type": "sampler",
            "ports": [9]
        },
        {
            "type": "phaser",
            "ports": [10]
        }
    ]
}
